<svg width="42" height="42" viewBox="0 0 42 42" fill="none" xmlns="http://www.w3.org/2000/svg">
<circle cx="21" cy="21" r="21" fill="#F2FBF6"/>
<path d="M28.5553 24.5413L26.5004 22.4864C25.9075 21.8935 24.9427 21.8935 24.3499 22.4864L23.4471 23.3892C21.3851 22.3094 19.6906 20.6149 18.6108 18.5529L19.5137 17.65C20.1065 17.0572 20.1065 16.0924 19.5137 15.4996L17.4587 13.4447C16.8659 12.8518 15.9012 12.8518 15.3083 13.4447L13.6643 15.0886C12.8054 15.9476 12.7785 17.4618 13.5887 19.3522C14.3191 21.0564 15.6595 22.9332 17.3632 24.6368C19.0668 26.3404 20.9436 27.6809 22.6478 28.4113C23.564 28.804 24.3918 29 25.0995 29C25.852 29 26.4687 28.7783 26.9113 28.3357L28.5553 26.6917C28.8425 26.4045 29.0007 26.0227 29.0007 25.6165C29.0007 25.2104 28.8425 24.8285 28.5553 24.5413ZM27.6378 25.7743L25.9938 27.4182C25.5487 27.8633 24.489 27.7887 23.1589 27.2187C21.6028 26.5518 19.8703 25.3091 18.2806 23.7193C16.6909 22.1296 15.4481 20.3972 14.7812 18.8411C14.2112 17.5111 14.1366 16.4513 14.5817 16.0062L16.2257 14.3622C16.3127 14.2753 16.4542 14.2753 16.5412 14.3622L18.5961 16.4171C18.6831 16.5041 18.6831 16.6457 18.5961 16.7326L17.0398 18.2889L17.2356 18.702C18.4922 21.3548 20.6452 23.5079 23.298 24.7644L23.7112 24.9601L25.2674 23.4039C25.3242 23.3471 25.3907 23.3385 25.4251 23.3385C25.4596 23.3385 25.526 23.347 25.5828 23.4039L27.6377 25.4588C27.6945 25.5156 27.7031 25.582 27.7031 25.6165C27.7031 25.651 27.6946 25.7174 27.6378 25.7743Z" fill="#00A651"/>
</svg>
